…
- mpg데이터를 회사 별로 그룹화

```R
mpg %>% 
  group_by(manufacturer)
## # A tibble: 234 x 11
## # Groups:   manufacturer [15]
##    manufacturer model    displ  year   cyl trans   drv     cty   hwy fl    class
##    <chr>        <chr>    <dbl> <int> <int> <chr>   <chr> <int> <int> <chr> <chr>
##  1 audi         a4         1.8  1999     4 auto(l~ f        18    29 p     comp~
##  2 audi         a4         1.8  1999     4 manual~ f        21    29 p     comp~
##  3 audi         a4         2    2008     4 manual~ f        20    31 p     comp~
##  4 audi         a4         2    2008     4 auto(a~ f        21    30 p     comp~
##  5 audi         a4         2.8  1999     6 auto(l~ f        16    26 p     comp~
##  6 audi         a4         2.8  1999     6 manual~ f        18    26 p     comp~
##  7 audi         a4         3.1  2008     6 auto(a~ f        18    27 p     comp~
##  8 audi         a4 quat~   1.8  1999     4 manual~ 4        18    26 p     comp~
##  9 audi         a4 quat~   1.8  1999     4 auto(l~ 4        16    25 p     comp~
## 10 audi         a4 quat~   2    2008     4 manual~ 4        20    28 p     comp~
## # ... with 224 more rows
```

- 위의 그룹화에서 class = "suv" 추출

```R
mpg %>% 
  group_by(manufacturer) %>% 
  filter(class == "suv")
## # A tibble: 62 x 11
## # Groups:   manufacturer [10]
##    manufacturer model      displ  year   cyl trans drv     cty   hwy fl    class
##    <chr>        <chr>      <dbl> <int> <int> <chr> <chr> <int> <int> <chr> <chr>
##  1 chevrolet    c1500 sub~   5.3  2008     8 auto~ r        14    20 r     suv  
##  2 chevrolet    c1500 sub~   5.3  2008     8 auto~ r        11    15 e     suv  
##  3 chevrolet    c1500 sub~   5.3  2008     8 auto~ r        14    20 r     suv  
##  4 chevrolet    c1500 sub~   5.7  1999     8 auto~ r        13    17 r     suv  
##  5 chevrolet    c1500 sub~   6    2008     8 auto~ r        12    17 r     suv  
##  6 chevrolet    k1500 tah~   5.3  2008     8 auto~ 4        14    19 r     suv  
##  7 chevrolet    k1500 tah~   5.3  2008     8 auto~ 4        11    14 e     suv  
##  8 chevrolet    k1500 tah~   5.7  1999     8 auto~ 4        11    15 r     suv  
##  9 chevrolet    k1500 tah~   6.5  1999     8 auto~ 4        14    17 d     suv  
## 10 dodge        durango 4~   3.9  1999     6 auto~ 4        13    17 r     suv  
## # ... with 52 more rows
```

- tot 열 추가(cyt와 hwy의 평균)

```R
mpg %>% 
  group_by(manufacturer) %>% 
  filter(class == "suv") %>% 
  mutate(tot = (cty+hwy)/2)
## # A tibble: 62 x 12
## # Groups:   manufacturer [10]
##    manufacturer model displ  year   cyl trans drv     cty   hwy fl    class
##    <chr>        <chr> <dbl> <int> <int> <chr> <chr> <int> <int> <chr> <chr>
##  1 chevrolet    c150~   5.3  2008     8 auto~ r        14    20 r     suv  
##  2 chevrolet    c150~   5.3  2008     8 auto~ r        11    15 e     suv  
##  3 chevrolet    c150~   5.3  2008     8 auto~ r        14    20 r     suv  
##  4 chevrolet    c150~   5.7  1999     8 auto~ r        13    17 r     suv  
##  5 chevrolet    c150~   6    2008     8 auto~ r        12    17 r     suv  
##  6 chevrolet    k150~   5.3  2008     8 auto~ 4        14    19 r     suv  
##  7 chevrolet    k150~   5.3  2008     8 auto~ 4        11    14 e     suv  
##  8 chevrolet    k150~   5.7  1999     8 auto~ 4        11    15 r     suv  
##  9 chevrolet    k150~   6.5  1999     8 auto~ 4        14    17 d     suv  
## 10 dodge        dura~   3.9  1999     6 auto~ 4        13    17 r     suv  
## # ... with 52 more rows, and 1 more variable: tot <dbl>
```
…
## economics 데이터(ggplot2 데이터)

```R
economics
## # A tibble: 574 x 6
##    date         pce    pop psavert uempmed unemploy
##    <date>     <dbl>  <dbl>   <dbl>   <dbl>    <dbl>
##  1 1967-07-01  507. 198712    12.6     4.5     2944
##  2 1967-08-01  510. 198911    12.6     4.7     2945
##  3 1967-09-01  516. 199113    11.9     4.6     2958
##  4 1967-10-01  512. 199311    12.9     4.9     3143
##  5 1967-11-01  517. 199498    12.8     4.7     3066
##  6 1967-12-01  525. 199657    11.8     4.8     3018
##  7 1968-01-01  531. 199808    11.7     5.1     2878
##  8 1968-02-01  534. 199920    12.3     4.5     3001
##  9 1968-03-01  544. 200056    11.7     4.1     2877
## 10 1968-04-01  544  200208    12.3     4.6     2709
## # ... with 564 more rows
```
…
### income, group_by(age, sex)

```R
welfare %>% 
  filter(!is.na(age) & age >= 20 & age <= 90) %>% 
  group_by(sex, age) %>% 
  summarise(mi = mean(income, na.rm = T))
## # A tibble: 142 x 3
## # Groups:   sex [2]
##    sex      age    mi
##    <chr>  <dbl> <dbl>
##  1 female    20  147.
##  2 female    21  107.
##  3 female    22  140.
##  4 female    23  139.
##  5 female    24  126.
##  6 female    25  147.
##  7 female    26  163.
##  8 female    27  185.
##  9 female    28  191.
## 10 female    29  192.
## # ... with 132 more rows
```

- income이 0인 경우에 NA로 처리해줬기 때문에 income으로 filter를 하면 코드가 더 깔끔하다.

```R
sex_age = welfare %>% 
  filter(!is.na(income)) %>%
  group_by(sex, age) %>% 
  summarise(mi = mean(income))
sex_age
## # A tibble: 134 x 3
## # Groups:   sex [2]
##    sex      age    mi
##    <chr>  <dbl> <dbl>
##  1 female    20  147.
##  2 female    21  107.
##  3 female    22  140.
##  4 female    23  139.
##  5 female    24  126.
##  6 female    25  147.
##  7 female    26  163.
##  8 female    27  185.
##  9 female    28  191.
## 10 female    29  192.
## # ... with 124 more rows
```
…
for game in dartResult:
    print(dartCompute(game))
```

## 2.

- 성별에 따라 어떤 직업이 가장 많은지 조사

```R
sex_job = welfare %>% 
  filter(!is.na(job)) %>% 
  group_by(sex, job) %>% 
  summarise(count = n())
sex_job
## # A tibble: 245 x 3
## # Groups:   sex [2]
##    sex    job                                count
##    <chr>  <chr>                              <int>
##  1 female 가사 및 육아 도우미                  125
##  2 female 간호사                                58
##  3 female 건설 및 광업 단순 종사원               7
##  4 female 건설구조관련 기능 종사자               1
##  5 female 건축 및 토목 공학 기술자 및 시험원     2
##  6 female 건축마감관련 기능 종사자               5
##  7 female 경비원 및 검표원                       4
##  8 female 경영관련 사무원                       47
##  9 female 경찰 소방 및 교도 관련 종사자          2
## 10 female 경호 및 보안 관련 종사자               1
## # ... with 235 more rows
```
…
